LFC ScatterPlot with GWAS Density for Seth
…
2 Load data

# Load data -----
df <- readRDS(here::here("cahan/results/deg_lfc_gwas_density_fig.rds"))

# There needs to be at least 5 columns in the df
# 1 & 2: The x_ and y_ scatterplot coordinates (LFC values)
# 3: set_ to group the scatterplot points (groupn)
# 4: set_density_ to group the density plots (gwas_g)
# 5: id a vector 1:nrow(df)
df

## # A tibble: 15,837 x 6
##    gene     log2FoldChange.hot log2FoldChange.cold groupn      id gwas_g
##    <chr>                 <dbl>               <dbl> <fct>    <int> <chr> 
##  1 CR45339             -4.42               -1.43   NS: 6485     1 Other 
##  2 CR45340             -3.34               -5.49   NS: 6485     2 Other 
##  3 galectin            -0.190               0.0203 NS: 6485     3 Other 
##  4 CG11374             -0.697               0.250  NS: 6485     4 Other 
##  5 CG11377              0.491               0.335  NS: 6485     5 Other 
##  6 Nhe1                 0.302               0.0199 NS: 6485     6 Other 
##  7 Sam-S                0.304               0.382  NS: 6485     7 Other 
##  8 CG11455              0.205               0.0809 NS: 6485     8 Other 
##  9 CG3164              -0.0249              0.320  NS: 6485     9 Other 
## 10 CR44186             -4.31               -3.36   NS: 6485    10 Other 
## # … with 15,827 more rows
…
